DIMENSION       6
BB_EXE          ./objfun6.sh
BB_OUTPUT_TYPE  OBJ EB
X0                ( ALPHA BETA ETA1 ETA2 SIGMA1 SIGMA2 )
LOWER_BOUND       (     1    0    1  0.1    0.1   10.1 )
UPPER_BOUND       (  1000 1000  999 99.9   99.9   99.9 )
INITIAL_POLL_SIZE (   100  100  100 10.0   10.0   10.0 )
MAX_BB_EVAL     400
TMP_DIR         /tmp
DISPLAY_DEGREE  2
DISPLAY_ALL_EVAL yes
DISPLAY_STATS BBE BBO ( SOL ) OBJ - EVAL TIME

STATS_FILE nomad_result.txt BBE BBO ( SOL ) OBJ - EVAL TIME
SOLUTION_FILE nomad_sol.txt

SNAP_TO_BOUNDS  no
VNS_SEARCH      yes
