DIMENSION       6
BB_EXE          ./objfun.sh
BB_OUTPUT_TYPE  OBJ EB
X0              ( ALPHA BETA 200.504 84.9801 69.9780 24.4949 )
LOWER_BOUND     (    1     0   0  0.1  0.1 10.1 )
UPPER_BOUND     ( 1000  1000 999 99.9 99.9 99.9 )
INITIAL_POLL_SIZE ( 1000 1000 1000 100 100 100 )
MAX_BB_EVAL     400
TMP_DIR         /tmp
DISPLAY_DEGREE  2
DISPLAY_ALL_EVAL yes
DISPLAY_STATS BBE BBO ( SOL ) OBJ - EVAL TIME

STATS_FILE nomad_result.txt BBE BBO ( SOL ) OBJ - EVAL TIME
SOLUTION_FILE nomad_sol.txt

SNAP_TO_BOUNDS  no
MIN_MESH_SIZE   0.1
VNS_SEARCH      yes
